{
	"info": {
		"_postman_id": "47581d42-da79-4dcc-a2db-0fdf74e4f351",
		"name": "Phrase",
		"schema": "https://schema.getpostman.com/json/collection/v2.1.0/collection.json"
	},
	"item": [
		{
			"name": "Get accounts",
			"request": {
				"method": "GET",
				"header": [],
				"url": {
					"raw": "http://{{serverUrl}}/phrase-demo/account",
					"protocol": "http",
					"host": [
						"{{serverUrl}}"
					],
					"path": [
						"phrase-demo",
						"account"
					]
				}
			},
			"response": []
		},
		{
			"name": "Create account",
			"event": [
				{
					"listen": "test",
					"script": {
						"exec": [
							"var jsonData = JSON.parse(responseBody);",
							"postman.setEnvironmentVariable(\"accountId\", jsonData.id);"
						],
						"type": "text/javascript"
					}
				}
			],
			"request": {
				"method": "POST",
				"header": [],
				"body": {
					"mode": "raw",
					"raw": "{\n  \"username\": \"user\",\n  \"password\": \"pass\"\n}",
					"options": {
						"raw": {
							"language": "json"
						}
					}
				},
				"url": {
					"raw": "http://{{serverUrl}}/phrase-demo/account",
					"protocol": "http",
					"host": [
						"{{serverUrl}}"
					],
					"path": [
						"phrase-demo",
						"account"
					]
				}
			},
			"response": []
		},
		{
			"name": "Update account",
			"request": {
				"method": "PUT",
				"header": [],
				"body": {
					"mode": "raw",
					"raw": "{\n  \"username\": \"user\",\n  \"password\": \"pass\"\n}",
					"options": {
						"raw": {
							"language": "json"
						}
					}
				},
				"url": {
					"raw": "http://{{serverUrl}}/phrase-demo/account/{{accountId}}",
					"protocol": "http",
					"host": [
						"{{serverUrl}}"
					],
					"path": [
						"phrase-demo",
						"account",
						"{{accountId}}"
					]
				}
			},
			"response": []
		},
		{
			"name": "Account projects",
			"request": {
				"method": "GET",
				"header": [],
				"url": {
					"raw": "http://{{serverUrl}}/phrase-demo/account/{{accountId}}/projects",
					"protocol": "http",
					"host": [
						"{{serverUrl}}"
					],
					"path": [
						"phrase-demo",
						"account",
						"{{accountId}}",
						"projects"
					]
				}
			},
			"response": []
		}
	]
}